%YAML 1.1
%TAG !u! tag:unity3d.com,2011:
--- !u!1 &2997516392557487643
GameObject:
  m_ObjectHideFlags: 0
  m_CorrespondingSourceObject: {fileID: 0}
  m_PrefabInstance: {fileID: 0}
  m_PrefabAsset: {fileID: 0}
  serializedVersion: 6
  m_Component:
  - component: {fileID: 2951688396553653778}
  - component: {fileID: 6866146354718767671}
  m_Layer: 31
  m_Name: GrassPalette
  m_TagString: Untagged
  m_Icon: {fileID: 0}
  m_NavMeshLayer: 0
  m_StaticEditorFlags: 0
  m_IsActive: 1
--- !u!4 &2951688396553653778
Transform:
  m_ObjectHideFlags: 0
  m_CorrespondingSourceObject: {fileID: 0}
  m_PrefabInstance: {fileID: 0}
  m_PrefabAsset: {fileID: 0}
  m_GameObject: {fileID: 2997516392557487643}
  m_LocalRotation: {x: 0, y: 0, z: 0, w: 1}
  m_LocalPosition: {x: 0, y: 0, z: 0}
  m_LocalScale: {x: 1, y: 1, z: 1}
  m_Children:
  - {fileID: 5533397797000631062}
  m_Father: {fileID: 0}
  m_RootOrder: 0
  m_LocalEulerAnglesHint: {x: 0, y: 0, z: 0}
--- !u!156049354 &6866146354718767671
Grid:
  m_ObjectHideFlags: 0
  m_CorrespondingSourceObject: {fileID: 0}
  m_PrefabInstance: {fileID: 0}
  m_PrefabAsset: {fileID: 0}
  m_GameObject: {fileID: 2997516392557487643}
  m_Enabled: 1
  m_CellSize: {x: 1, y: 1, z: 0}
  m_CellGap: {x: 0, y: 0, z: 0}
  m_CellLayout: 0
  m_CellSwizzle: 0
--- !u!1 &3222085776901335019
GameObject:
  m_ObjectHideFlags: 0
  m_CorrespondingSourceObject: {fileID: 0}
  m_PrefabInstance: {fileID: 0}
  m_PrefabAsset: {fileID: 0}
  serializedVersion: 6
  m_Component:
  - component: {fileID: 5533397797000631062}
  - component: {fileID: 4515970433242197679}
  - component: {fileID: 3016406952218437226}
  m_Layer: 31
  m_Name: Layer1
  m_TagString: Untagged
  m_Icon: {fileID: 0}
  m_NavMeshLayer: 0
  m_StaticEditorFlags: 0
  m_IsActive: 1
--- !u!4 &5533397797000631062
Transform:
  m_ObjectHideFlags: 0
  m_CorrespondingSourceObject: {fileID: 0}
  m_PrefabInstance: {fileID: 0}
  m_PrefabAsset: {fileID: 0}
  m_GameObject: {fileID: 3222085776901335019}
  m_LocalRotation: {x: -0, y: -0, z: -0, w: 1}
  m_LocalPosition: {x: 0, y: 0, z: 0}
  m_LocalScale: {x: 1, y: 1, z: 1}
  m_Children: []
  m_Father: {fileID: 2951688396553653778}
  m_RootOrder: 0
  m_LocalEulerAnglesHint: {x: 0, y: 0, z: 0}
--- !u!1839735485 &4515970433242197679
Tilemap:
  m_ObjectHideFlags: 0
  m_CorrespondingSourceObject: {fileID: 0}
  m_PrefabInstance: {fileID: 0}
  m_PrefabAsset: {fileID: 0}
  m_GameObject: {fileID: 3222085776901335019}
  m_Enabled: 1
  m_Tiles:
  - first: {x: -1, y: -5, z: 0}
    second:
      m_TileIndex: 23
      m_TileSpriteIndex: 23
      m_TileMatrixIndex: 0
      m_TileColorIndex: 0
      m_ObjectToInstantiate: {fileID: 0}
      m_TileFlags: 1
      m_ColliderType: 1
  - first: {x: 0, y: -5, z: 0}
    second:
      m_TileIndex: 24
      m_TileSpriteIndex: 24
      m_TileMatrixIndex: 0
      m_TileColorIndex: 0
      m_ObjectToInstantiate: {fileID: 0}
      m_TileFlags: 1
      m_ColliderType: 1
  - first: {x: 1, y: -5, z: 0}
    second:
      m_TileIndex: 25
      m_TileSpriteIndex: 25
      m_TileMatrixIndex: 0
      m_TileColorIndex: 0
      m_ObjectToInstantiate: {fileID: 0}
      m_TileFlags: 1
      m_ColliderType: 1
  - first: {x: -1, y: -4, z: 0}
    second:
      m_TileIndex: 20
      m_TileSpriteIndex: 20
      m_TileMatrixIndex: 0
      m_TileColorIndex: 0
      m_ObjectToInstantiate: {fileID: 0}
      m_TileFlags: 1
      m_ColliderType: 1
  - first: {x: 0, y: -4, z: 0}
    second:
      m_TileIndex: 21
      m_TileSpriteIndex: 21
      m_TileMatrixIndex: 0
      m_TileColorIndex: 0
      m_ObjectToInstantiate: {fileID: 0}
      m_TileFlags: 1
      m_ColliderType: 1
  - first: {x: 1, y: -4, z: 0}
    second:
      m_TileIndex: 22
      m_TileSpriteIndex: 22
      m_TileMatrixIndex: 0
      m_TileColorIndex: 0
      m_ObjectToInstantiate: {fileID: 0}
      m_TileFlags: 1
      m_ColliderType: 1
  - first: {x: -1, y: -3, z: 0}
    second:
      m_TileIndex: 15
      m_TileSpriteIndex: 15
      m_TileMatrixIndex: 0
      m_TileColorIndex: 0
      m_ObjectToInstantiate: {fileID: 0}
      m_TileFlags: 1
      m_ColliderType: 1
  - first: {x: 0, y: -3, z: 0}
    second:
      m_TileIndex: 16
      m_TileSpriteIndex: 16
      m_TileMatrixIndex: 0
      m_TileColorIndex: 0
      m_ObjectToInstantiate: {fileID: 0}
      m_TileFlags: 1
      m_ColliderType: 1
  - first: {x: 1, y: -3, z: 0}
    second:
      m_TileIndex: 17
      m_TileSpriteIndex: 17
      m_TileMatrixIndex: 0
      m_TileColorIndex: 0
      m_ObjectToInstantiate: {fileID: 0}
      m_TileFlags: 1
      m_ColliderType: 1
  - first: {x: 2, y: -3, z: 0}
    second:
      m_TileIndex: 18
      m_TileSpriteIndex: 18
      m_TileMatrixIndex: 0
      m_TileColorIndex: 0
      m_ObjectToInstantiate: {fileID: 0}
      m_TileFlags: 1
      m_ColliderType: 1
  - first: {x: 3, y: -3, z: 0}
    second:
      m_TileIndex: 19
      m_TileSpriteIndex: 19
      m_TileMatrixIndex: 0
      m_TileColorIndex: 0
      m_ObjectToInstantiate: {fileID: 0}
      m_TileFlags: 1
      m_ColliderType: 1
  - first: {x: -1, y: -2, z: 0}
    second:
      m_TileIndex: 10
      m_TileSpriteIndex: 10
      m_TileMatrixIndex: 0
      m_TileColorIndex: 0
      m_ObjectToInstantiate: {fileID: 0}
      m_TileFlags: 1
      m_ColliderType: 1
  - first: {x: 0, y: -2, z: 0}
    second:
      m_TileIndex: 11
      m_TileSpriteIndex: 11
      m_TileMatrixIndex: 0
      m_TileColorIndex: 0
      m_ObjectToInstantiate: {fileID: 0}
      m_TileFlags: 1
      m_ColliderType: 1
  - first: {x: 1, y: -2, z: 0}
    second:
      m_TileIndex: 12
      m_TileSpriteIndex: 12
      m_TileMatrixIndex: 0
      m_TileColorIndex: 0
      m_ObjectToInstantiate: {fileID: 0}
      m_TileFlags: 1
      m_ColliderType: 1
  - first: {x: 2, y: -2, z: 0}
    second:
      m_TileIndex: 13
      m_TileSpriteIndex: 13
      m_TileMatrixIndex: 0
      m_TileColorIndex: 0
      m_ObjectToInstantiate: {fileID: 0}
      m_TileFlags: 1
      m_ColliderType: 1
  - first: {x: 3, y: -2, z: 0}
    second:
      m_TileIndex: 14
      m_TileSpriteIndex: 14
      m_TileMatrixIndex: 0
      m_TileColorIndex: 0
      m_ObjectToInstantiate: {fileID: 0}
      m_TileFlags: 1
      m_ColliderType: 1
  - first: {x: -1, y: -1, z: 0}
    second:
      m_TileIndex: 5
      m_TileSpriteIndex: 5
      m_TileMatrixIndex: 0
      m_TileColorIndex: 0
      m_ObjectToInstantiate: {fileID: 0}
      m_TileFlags: 1
      m_ColliderType: 1
  - first: {x: 0, y: -1, z: 0}
    second:
      m_TileIndex: 6
      m_TileSpriteIndex: 6
      m_TileMatrixIndex: 0
      m_TileColorIndex: 0
      m_ObjectToInstantiate: {fileID: 0}
      m_TileFlags: 1
      m_ColliderType: 1
  - first: {x: 1, y: -1, z: 0}
    second:
      m_TileIndex: 7
      m_TileSpriteIndex: 7
      m_TileMatrixIndex: 0
      m_TileColorIndex: 0
      m_ObjectToInstantiate: {fileID: 0}
      m_TileFlags: 1
      m_ColliderType: 1
  - first: {x: 2, y: -1, z: 0}
    second:
      m_TileIndex: 8
      m_TileSpriteIndex: 8
      m_TileMatrixIndex: 0
      m_TileColorIndex: 0
      m_ObjectToInstantiate: {fileID: 0}
      m_TileFlags: 1
      m_ColliderType: 1
  - first: {x: 3, y: -1, z: 0}
    second:
      m_TileIndex: 9
      m_TileSpriteIndex: 9
      m_TileMatrixIndex: 0
      m_TileColorIndex: 0
      m_ObjectToInstantiate: {fileID: 0}
      m_TileFlags: 1
      m_ColliderType: 1
  - first: {x: -1, y: 0, z: 0}
    second:
      m_TileIndex: 0
      m_TileSpriteIndex: 0
      m_TileMatrixIndex: 0
      m_TileColorIndex: 0
      m_ObjectToInstantiate: {fileID: 0}
      m_TileFlags: 1
      m_ColliderType: 1
  - first: {x: 0, y: 0, z: 0}
    second:
      m_TileIndex: 1
      m_TileSpriteIndex: 1
      m_TileMatrixIndex: 0
      m_TileColorIndex: 0
      m_ObjectToInstantiate: {fileID: 0}
      m_TileFlags: 1
      m_ColliderType: 1
  - first: {x: 1, y: 0, z: 0}
    second:
      m_TileIndex: 2
      m_TileSpriteIndex: 2
      m_TileMatrixIndex: 0
      m_TileColorIndex: 0
      m_ObjectToInstantiate: {fileID: 0}
      m_TileFlags: 1
      m_ColliderType: 1
  - first: {x: 2, y: 0, z: 0}
    second:
      m_TileIndex: 3
      m_TileSpriteIndex: 3
      m_TileMatrixIndex: 0
      m_TileColorIndex: 0
      m_ObjectToInstantiate: {fileID: 0}
      m_TileFlags: 1
      m_ColliderType: 1
  - first: {x: 3, y: 0, z: 0}
    second:
      m_TileIndex: 4
      m_TileSpriteIndex: 4
      m_TileMatrixIndex: 0
      m_TileColorIndex: 0
      m_ObjectToInstantiate: {fileID: 0}
      m_TileFlags: 1
      m_ColliderType: 1
  m_AnimatedTiles: {}
  m_TileAssetArray:
  - m_RefCount: 1
    m_Data: {fileID: 11400000, guid: e4f1a146947c9bd4ca92805dcc418a44, type: 2}
  - m_RefCount: 1
    m_Data: {fileID: 11400000, guid: 3c5a5303fa446324081260581407beba, type: 2}
  - m_RefCount: 1
    m_Data: {fileID: 11400000, guid: de6719d1689418048bcbc228cf07b9e8, type: 2}
  - m_RefCount: 1
    m_Data: {fileID: 11400000, guid: a91d21e965857864f91363ca2fa890a8, type: 2}
  - m_RefCount: 1
    m_Data: {fileID: 11400000, guid: b095d108ded87864aaa17ab203f32b82, type: 2}
  - m_RefCount: 1
    m_Data: {fileID: 11400000, guid: 92ed7f894ae6b2e49bbc5e5232e4217e, type: 2}
  - m_RefCount: 1
    m_Data: {fileID: 11400000, guid: 6d75976d5c3d15c49b66f2e692379af8, type: 2}
  - m_RefCount: 1
    m_Data: {fileID: 11400000, guid: deaf6252469814649880a23bb32b30f7, type: 2}
  - m_RefCount: 1
    m_Data: {fileID: 11400000, guid: 0f16141c2c3cfa24cabcc64b4ccb16d2, type: 2}
  - m_RefCount: 1
    m_Data: {fileID: 11400000, guid: ef16aeaefc35f5e4d8f735c1b3a15d0a, type: 2}
  - m_RefCount: 1
    m_Data: {fileID: 11400000, guid: 26646c58f6d54fd4fab09dbcca941eb5, type: 2}
  - m_RefCount: 1
    m_Data: {fileID: 11400000, guid: df7a16f27b283ed4d9237200b7c1e80d, type: 2}
  - m_RefCount: 1
    m_Data: {fileID: 11400000, guid: 70f117ff402950a44bdd94b9a19a0375, type: 2}
  - m_RefCount: 1
    m_Data: {fileID: 11400000, guid: 210ae0d7e9342254c9a854959af91b45, type: 2}
  - m_RefCount: 1
    m_Data: {fileID: 11400000, guid: a2a68370ecf086b46a9a17f66d4ca6f5, type: 2}
  - m_RefCount: 1
    m_Data: {fileID: 11400000, guid: 6f04948af16231149be6f95d6f067e43, type: 2}
  - m_RefCount: 1
    m_Data: {fileID: 11400000, guid: d84baa3da92867a4e9ef60bf165bdfc4, type: 2}
  - m_RefCount: 1
    m_Data: {fileID: 11400000, guid: 75eee42ea8ded254bba8f7677dea847b, type: 2}
  - m_RefCount: 1
    m_Data: {fileID: 11400000, guid: 0607bba94919055408fd64bec15e1002, type: 2}
  - m_RefCount: 1
    m_Data: {fileID: 11400000, guid: ea054d1d9bacfe7448a9ea716c613e9f, type: 2}
  - m_RefCount: 1
    m_Data: {fileID: 11400000, guid: c359f6b7b22e58c4db2e209069e65870, type: 2}
  - m_RefCount: 1
    m_Data: {fileID: 11400000, guid: c3b147d50e1904b4fa8fe42b8cafcaa2, type: 2}
  - m_RefCount: 1
    m_Data: {fileID: 11400000, guid: 793e4d0b9c245fe41bc0b6806aeba22a, type: 2}
  - m_RefCount: 1
    m_Data: {fileID: 11400000, guid: 8b94284ed04445847b07278960e6b764, type: 2}
  - m_RefCount: 1
    m_Data: {fileID: 11400000, guid: 04a9418a71d9371459e4dca75a637792, type: 2}
  - m_RefCount: 1
    m_Data: {fileID: 11400000, guid: e9158881f7edc9248a3b8b60362a2569, type: 2}
  m_TileSpriteArray:
  - m_RefCount: 1
    m_Data: {fileID: 21300098, guid: 5bdebc31617e5475f9757dbb57389d3b, type: 3}
  - m_RefCount: 1
    m_Data: {fileID: 21300100, guid: 5bdebc31617e5475f9757dbb57389d3b, type: 3}
  - m_RefCount: 1
    m_Data: {fileID: 21300102, guid: 5bdebc31617e5475f9757dbb57389d3b, type: 3}
  - m_RefCount: 1
    m_Data: {fileID: 21300104, guid: 5bdebc31617e5475f9757dbb57389d3b, type: 3}
  - m_RefCount: 1
    m_Data: {fileID: 21300106, guid: 5bdebc31617e5475f9757dbb57389d3b, type: 3}
  - m_RefCount: 1
    m_Data: {fileID: 21300108, guid: 5bdebc31617e5475f9757dbb57389d3b, type: 3}
  - m_RefCount: 1
    m_Data: {fileID: 21300110, guid: 5bdebc31617e5475f9757dbb57389d3b, type: 3}
  - m_RefCount: 1
    m_Data: {fileID: 21300112, guid: 5bdebc31617e5475f9757dbb57389d3b, type: 3}
  - m_RefCount: 1
    m_Data: {fileID: 21300114, guid: 5bdebc31617e5475f9757dbb57389d3b, type: 3}
  - m_RefCount: 1
    m_Data: {fileID: 21300116, guid: 5bdebc31617e5475f9757dbb57389d3b, type: 3}
  - m_RefCount: 1
    m_Data: {fileID: 21300118, guid: 5bdebc31617e5475f9757dbb57389d3b, type: 3}
  - m_RefCount: 1
    m_Data: {fileID: 21300120, guid: 5bdebc31617e5475f9757dbb57389d3b, type: 3}
  - m_RefCount: 1
    m_Data: {fileID: 21300122, guid: 5bdebc31617e5475f9757dbb57389d3b, type: 3}
  - m_RefCount: 1
    m_Data: {fileID: 21300124, guid: 5bdebc31617e5475f9757dbb57389d3b, type: 3}
  - m_RefCount: 1
    m_Data: {fileID: 21300126, guid: 5bdebc31617e5475f9757dbb57389d3b, type: 3}
  - m_RefCount: 1
    m_Data: {fileID: 21300128, guid: 5bdebc31617e5475f9757dbb57389d3b, type: 3}
  - m_RefCount: 1
    m_Data: {fileID: 21300130, guid: 5bdebc31617e5475f9757dbb57389d3b, type: 3}
  - m_RefCount: 1
    m_Data: {fileID: 21300132, guid: 5bdebc31617e5475f9757dbb57389d3b, type: 3}
  - m_RefCount: 1
    m_Data: {fileID: 21300134, guid: 5bdebc31617e5475f9757dbb57389d3b, type: 3}
  - m_RefCount: 1
    m_Data: {fileID: 21300136, guid: 5bdebc31617e5475f9757dbb57389d3b, type: 3}
  - m_RefCount: 1
    m_Data: {fileID: 21300138, guid: 5bdebc31617e5475f9757dbb57389d3b, type: 3}
  - m_RefCount: 1
    m_Data: {fileID: 21300140, guid: 5bdebc31617e5475f9757dbb57389d3b, type: 3}
  - m_RefCount: 1
    m_Data: {fileID: 21300142, guid: 5bdebc31617e5475f9757dbb57389d3b, type: 3}
  - m_RefCount: 1
    m_Data: {fileID: 21300144, guid: 5bdebc31617e5475f9757dbb57389d3b, type: 3}
  - m_RefCount: 1
    m_Data: {fileID: 21300146, guid: 5bdebc31617e5475f9757dbb57389d3b, type: 3}
  - m_RefCount: 1
    m_Data: {fileID: 21300148, guid: 5bdebc31617e5475f9757dbb57389d3b, type: 3}
  m_TileMatrixArray:
  - m_RefCount: 26
    m_Data:
      e00: 1
      e01: 0
      e02: 0
      e03: 0
      e10: 0
      e11: 1
      e12: 0
      e13: 0
      e20: 0
      e21: 0
      e22: 1
      e23: 0
      e30: 0
      e31: 0
      e32: 0
      e33: 1
  m_TileColorArray:
  - m_RefCount: 26
    m_Data: {r: 1, g: 1, b: 1, a: 1}
  m_AnimationFrameRate: 1
  m_Color: {r: 1, g: 1, b: 1, a: 1}
  m_Origin: {x: -1, y: -5, z: 0}
  m_Size: {x: 5, y: 6, z: 1}
  m_TileAnchor: {x: 0.5, y: 0.5, z: 0}
  m_TileOrientation: 0
  m_TileOrientationMatrix:
    e00: 1
    e01: 0
    e02: 0
    e03: 0
    e10: 0
    e11: 1
    e12: 0
    e13: 0
    e20: 0
    e21: 0
    e22: 1
    e23: 0
    e30: 0
    e31: 0
    e32: 0
    e33: 1
--- !u!483693784 &3016406952218437226
TilemapRenderer:
  m_ObjectHideFlags: 0
  m_CorrespondingSourceObject: {fileID: 0}
  m_PrefabInstance: {fileID: 0}
  m_PrefabAsset: {fileID: 0}
  m_GameObject: {fileID: 3222085776901335019}
  m_Enabled: 0
  m_CastShadows: 0
  m_ReceiveShadows: 0
  m_DynamicOccludee: 0
  m_MotionVectors: 1
  m_LightProbeUsage: 0
  m_ReflectionProbeUsage: 0
  m_RenderingLayerMask: 1
  m_RendererPriority: 0
  m_Materials:
  - {fileID: 10754, guid: 0000000000000000f000000000000000, type: 0}
  m_StaticBatchInfo:
    firstSubMesh: 0
    subMeshCount: 0
  m_StaticBatchRoot: {fileID: 0}
  m_ProbeAnchor: {fileID: 0}
  m_LightProbeVolumeOverride: {fileID: 0}
  m_ScaleInLightmap: 1
  m_PreserveUVs: 0
  m_IgnoreNormalsForChartDetection: 0
  m_ImportantGI: 0
  m_StitchLightmapSeams: 0
  m_SelectedEditorRenderState: 0
  m_MinimumChartSize: 4
  m_AutoUVMaxDistance: 0.5
  m_AutoUVMaxAngle: 89
  m_LightmapParameters: {fileID: 0}
  m_SortingLayerID: 0
  m_SortingLayer: 0
  m_SortingOrder: 0
  m_ChunkSize: {x: 32, y: 32, z: 32}
  m_ChunkCullingBounds: {x: 0, y: 0, z: 0}
  m_MaxChunkCount: 16
  m_MaxFrameAge: 16
  m_SortOrder: 0
  m_Mode: 0
  m_DetectChunkCullingBounds: 0
  m_MaskInteraction: 0
--- !u!114 &114739463652580420
MonoBehaviour:
  m_ObjectHideFlags: 0
  m_CorrespondingSourceObject: {fileID: 0}
  m_PrefabInstance: {fileID: 0}
  m_PrefabAsset: {fileID: 0}
  m_GameObject: {fileID: 0}
  m_Enabled: 1
  m_EditorHideFlags: 0
  m_Script: {fileID: 12395, guid: 0000000000000000e000000000000000, type: 0}
  m_Name: Palette Settings
  m_EditorClassIdentifier: 
  cellSizing: 0
